%YAML 1.1
%TAG !u! tag:unity3d.com,2011:
--- !u!1045 &1
EditorBuildSettings:
  m_ObjectHideFlags: 0
  serializedVersion: 2
  m_Scenes:
  - enabled: 1
    path: Assets/Scenes/SampleScene.unity
    guid: 2cda990e2423bbf4892e6590ba056729
  - enabled: 1
    path: Assets/Scenes/1+1=2.unity
    guid: 9b07a04ae2d5cbc4bb7a5c7378e0aa2a
  - enabled: 1
    path: Assets/Scenes/1+1+1=3.unity
    guid: a04f6840e63fd4d47816a8ba7939d315
  - enabled: 1
    path: Assets/Scenes/tile.unity
    guid: ad84671492e0ee3429d1b165f2ed80a4
  - enabled: 1
    path: Assets/Scenes/1+1+1+1=4.unity
    guid: 785daee055c4f414fa8f05cd4b32ed83
  m_configObjects: {}
